newmtl MM_Object_Object01_9SG
illum 4
Kd 0.00 0.00 0.00
Ka 0.00 0.00 0.00
Tf 1.00 1.00 1.00
map_Kd Map__1_Gradient_Ramp.tga
map_Ka Map__1_Gradient_Ramp.tga
Ni 1.00
Ks 0.00 0.00 0.00
Ns 10.00
newmtl MM_Object_Object01_12SG
illum 4
Kd 0.56 0.56 0.56
Ka 0.56 0.56 0.56
Tf 0.20 0.20 0.20
Ni 1.00
Ks 0.72 0.72 0.72
Ns 50.00
newmtl blinn1SG
illum 4
Kd 0.50 0.50 0.50
Ka 0.00 0.00 0.00
Tf 0.36 0.36 0.36
Ni 1.00
Ks 0.50 0.50 0.50
newmtl blinn2SG
illum 4
Kd 0.00 0.00 0.00
Ka 0.00 0.00 0.00
Tf 1.00 1.00 1.00
Ni 1.00
Ks 0.50 0.50 0.50
newmtl blinn4SG
illum 4
Kd 0.61 0.61 0.61
Ka 0.00 0.00 0.00
Tf 1.00 1.00 1.00
Ni 1.00
Ks 0.50 0.50 0.50
newmtl blinn5SG
illum 4
Kd 0.57 0.58 0.53
Ka 0.00 0.00 0.00
Tf 1.00 1.00 1.00
Ni 1.00
Ks 0.50 0.50 0.50
newmtl blinn6SG
illum 4
Kd 0.41 0.41 0.41
Ka 0.00 0.00 0.00
Tf 1.00 1.00 1.00
Ni 1.00
Ks 0.50 0.50 0.50
newmtl bloodbag_v1:___Default2
illum 4
Kd 0.56 0.56 0.56
Ka 0.56 0.56 0.56
Tf 0.20 0.20 0.20
Ni 1.50
Ks 0.72 0.72 0.72
Ns 50.00
newmtl bloodbag_v1:___Default4
illum 4
Kd 0.00 0.00 0.00
Ka 0.00 0.00 0.00
Tf 1.00 1.00 1.00
map_Kd Map__1_Gradient_Ramp.tga
map_Ka Map__1_Gradient_Ramp.tga
Ni 1.50
Ks 0.00 0.00 0.00
Ns 10.00
newmtl initialShadingGroup
illum 4
Kd 0.50 0.50 0.50
Ka 0.00 0.00 0.00
Tf 1.00 1.00 1.00
Ni 1.00
newmtl lambert2SG
illum 4
Kd 0.00 0.00 0.00
Ka 0.00 0.00 0.00
Tf 1.00 1.00 1.00
map_Kd trima7_tex.jpg
Ni 1.00
newmtl lambert3SG
illum 4
Kd 0.00 0.00 0.00
Ka 0.00 0.00 0.00
Tf 1.00 1.00 1.00
map_Kd Trima-Disposable-01.png
Ni 1.00
newmtl lambert6SG
illum 4
Kd 0.16 0.16 0.16
Ka 0.00 0.00 0.00
Tf 1.00 1.00 1.00
Ni 1.00
newmtl lambert7SG
illum 4
Kd 0.13 0.42 0.21
Ka 0.00 0.00 0.00
Tf 1.00 1.00 1.00
Ni 1.00
newmtl lambert8SG
illum 4
Kd 0.08 0.08 0.08
Ka 0.00 0.00 0.00
Tf 1.00 1.00 1.00
Ni 1.00
newmtl main_assembly_revisions2:lambert2SG
illum 4
Kd 0.15 0.15 0.15
Ka 0.00 0.00 0.00
Tf 1.00 1.00 1.00
Ni 1.00
newmtl phong2SG
illum 4
Kd 0.00 0.00 0.00
Ka 0.00 0.00 0.00
Tf 1.00 1.00 1.00
Ni 1.00
Ks 0.50 0.50 0.50
Ns 18.00
newmtl phong3SG
illum 4
Kd 0.00 0.00 0.00
Ka 0.00 0.00 0.00
Tf 1.00 1.00 1.00
Ni 1.00
Ks 0.50 0.50 0.50
Ns 18.00
newmtl phong4SG
illum 4
Kd 1.00 1.00 1.00
Ka 0.07 0.07 0.07
Tf 1.00 1.00 1.00
Ni 1.00
Ks 1.00 1.00 1.00
Ns 7.68
